o,o,o,o,o,o,o,o,o,o,o,o,o,o,o,o
o,o,o,o,o,o,o,o,o,o,o,o,o,o,o,o
o,o,o,o,o,o,o,o,o,o,o,o,o,o,o,o
o,o,o,o,o,o,o,o,o,o,o,o,o,o,o,o
o,o,o,o,o,o,o,o,o,o,o,o,o,g,o,o
o,o,o,o,o,o,o,o,o,o,o,o,x,x,o,o
o,o,o,o,o,o,o,o,o,o,o,o,x,x,o,o
o,o,o,o,p,o,o,o,o,o,o,o,o,o,o,o
o,o,o,o,x,x,o,o,o,o,o,o,o,o,o,o
o,o,o,o,x,x,o,o,o,o,o,o,o,o,o,o