o,o,o,o,o,o,o,o,o,o,o,o,o,o,o,o
p,o,o,o,o,o,o,o,o,o,o,o,o,o,o,o
x,o,o,o,o,o,o,o,o,o,o,o,o,o,o,o
o,o,o,o,o,o,o,o,o,o,o,o,o,o,o,o
o,o,o,o,o,o,o,o,o,o,o,o,o,o,o,o
o,o,o,o,o,o,o,o,o,o,o,o,o,o,o,g
o,o,o,o,o,o,o,o,o,o,o,o,o,o,o,x
o,o,o,o,o,o,x,o,x,o,x,o,o,o,o,x
o,o,o,o,o,o,x,o,o,o,x,o,o,o,o,o
x,o,o,o,x,o,x,o,x,o,x,o,x,o,o,o